Sending build context to Docker daemon 5.632 kB
Step 1 : FROM lqb10/debian-bootstrap:wheezy-i386-base
 ---> ce0dcde1d51d
Step 2 : MAINTAINER lqb <lqb@gmx.net>
 ---> Running in 5410c53387d3
 ---> 688ee0a78256
Removing intermediate container 5410c53387d3
Step 3 : COPY sources.list /etc/apt/sources.list
 ---> 56b8e89dbb98
Removing intermediate container 849412d28145
Step 4 : COPY upgrade.sh /tmp/upgrade.sh
 ---> 9d4eafd78e65
Removing intermediate container 81d64c538146
Step 5 : CMD /bin/bash
 ---> Running in 4f9d307b4790
 ---> e95b21e9c0e7
Removing intermediate container 4f9d307b4790
Successfully built e95b21e9c0e7
+ echo '###### Docker Container ID / Hostname = ce10a4a49cc5 ######'
###### Docker Container ID / Hostname = ce10a4a49cc5 ######
+ mkdir /tmp/bin
+ echo -en '#!/bin/bash\nexit 0\n'
+ chmod a+x /tmp/bin/invoke-rc.d
+ export PATH=/tmp/bin:/usr/local/sbin:/usr/local/bin:/usr/sbin:/usr/bin:/sbin:/bin
+ PATH=/tmp/bin:/usr/local/sbin:/usr/local/bin:/usr/sbin:/usr/bin:/sbin:/bin
+ export DEBIAN_FRONTEND=noninteractive
+ DEBIAN_FRONTEND=noninteractive
+ apt-get update
0% [Working]            Get:1 http://security.debian.org wheezy/updates Release.gpg [1554 B]
            0% [Waiting for headers] [1 Release.gpg 0 B/1554 B 0%]                                                      100% [Waiting for headers]                          Get:2 http://security.debian.org wheezy/updates Release [102 kB]
                          1% [Waiting for headers] [2 Release 0 B/102 kB 0%]                                                  Get:3 http://ftp.de.debian.org wheezy Release.gpg [2373 B]
                                                  7% [3 Release.gpg 0 B/2373 B 0%] [2 Release 5430 B/102 kB 5%]                                                             9% [2 Release 5430 B/102 kB 5%]                               Get:4 http://ftp.de.debian.org wheezy Release [191 kB]
                               14% [4 Release 0 B/191 kB 0%] [2 Release 37.3 kB/102 kB 36%]                                                            49% [4 Release 40.8 kB/191 kB 21%]                                  49% [2 Release gpgv 102 kB] [4 Release 40.8 kB/191 kB 21%]                                                          49% [4 Release 40.8 kB/191 kB 21%]                                  Get:5 http://security.debian.org wheezy/updates/main Sources [209 kB]
                                  35% [4 Release 72.2 kB/191 kB 38%] [5 Sources 0 B/209 kB 0%]                                                            83% [5 Sources 121 kB/209 kB 58%]                                 83% [4 Release gpgv 191 kB] [5 Sources 121 kB/209 kB 58%]                                                         86% [5 Sources 137 kB/209 kB 66%]                                 Get:6 http://ftp.de.debian.org wheezy/main Sources [5982 kB]
                                 8% [6 Sources 1064 B/5982 kB 0%] [5 Sources 191 kB/209 kB 91%]                                                              8% [6 Sources 29.8 kB/5982 kB 0%]                                 8% [5 Sources bzip2 0 B] [6 Sources 29.8 kB/5982 kB 0%]                                                       Get:7 http://security.debian.org wheezy/updates/contrib Sources [14 B]
                                                       9% [5 Sources bzip2 0 B] [6 Sources 48.9 kB/5982 kB 1%] [7 Sources 14 B/14 B 10                                                                               9% [5 Sources bzip2 0 B] [6 Sources 48.9 kB/5982 kB 1%]                                                       Get:8 http://security.debian.org wheezy/updates/non-free Sources [14 B]
                                                       9% [5 Sources bzip2 0 B] [6 Sources 48.9 kB/5982 kB 1%] [Waiting for headers]                                                                             Get:9 http://security.debian.org wheezy/updates/main i386 Packages [346 kB]
                                                                             9% [5 Sources bzip2 0 B] [6 Sources 121 kB/5982 kB 2%] [9 Packages 2499 B/346 k                                                                               9% [6 Sources 121 kB/5982 kB 2%] [9 Packages 5395 B/346 kB 2%]                                                              9% [7 Sources bzip2 0 B] [6 Sources 121 kB/5982 kB 2%] [9 Packages 9739 B/346 k                                                                               9% [6 Sources 121 kB/5982 kB 2%] [9 Packages 9739 B/346 kB 3%]                                                              9% [8 Sources bzip2 0 B] [6 Sources 121 kB/5982 kB 2%] [9 Packages 9739 B/346 k                                                                               9% [6 Sources 121 kB/5982 kB 2%] [9 Packages 9739 B/346 kB 3%]                                                              17% [6 Sources 480 kB/5982 kB 8%] [9 Packages 186 kB/346 kB 54%]                                                                21% [6 Sources 645 kB/5982 kB 11%] [9 Packages 291 kB/346 kB 84%]                                                                 23% [6 Sources 732 kB/5982 kB 12%] [Waiting for headers]                                                        23% [9 Packages bzip2 0 B] [6 Sources 734 kB/5982 kB 12%] [Waiting for headers]                                                                               Get:10 http://security.debian.org wheezy/updates/contrib i386 Packages [14 B]
24% [9 Packages bzip2 0 B] [6 Sources 758 kB/5982 kB 13%] [Waiting for headers]                                                                               Get:11 http://security.debian.org wheezy/updates/non-free i386 Packages [14 B]
24% [9 Packages bzip2 0 B] [6 Sources 758 kB/5982 kB 13%] [Waiting for headers]                                                                               Get:12 http://security.debian.org wheezy/updates/contrib Translation-en [523 B]
25% [9 Packages bzip2 0 B] [6 Sources 833 kB/5982 kB 14%] [Waiting for headers]                                                                               Get:13 http://security.debian.org wheezy/updates/main Translation-en [200 kB]
24% [9 Packages bzip2 0 B] [6 Sources 845 kB/5982 kB 14%] [13 Translation-en 10                                                                               25% [6 Sources 862 kB/5982 kB 14%] [13 Translation-en 28.6 kB/200 kB 14%]                                                                         25% [10 Packages bzip2 0 B] [6 Sources 862 kB/5982 kB 14%] [13 Translation-en 2                                                                               25% [6 Sources 862 kB/5982 kB 14%] [13 Translation-en 28.6 kB/200 kB 14%]                                                                         25% [11 Packages bzip2 0 B] [6 Sources 862 kB/5982 kB 14%] [13 Translation-en 2                                                                               25% [6 Sources 862 kB/5982 kB 14%] [13 Translation-en 28.6 kB/200 kB 14%]                                                                         25% [12 Translation-en bzip2 0 B] [6 Sources 862 kB/5982 kB 14%] [13 Translatio                                                                               25% [6 Sources 862 kB/5982 kB 14%] [13 Translation-en 28.6 kB/200 kB 14%]                                                                         28% [6 Sources 970 kB/5982 kB 16%] [13 Translation-en 130 kB/200 kB 65%]                                                                        29% [6 Sources 1017 kB/5982 kB 17%]                                   29% [13 Translation-en bzip2 0 B] [6 Sources 1017 kB/5982 kB 17%]                                                                 Get:14 http://security.debian.org wheezy/updates/non-free Translation-en [14 B]
                                                                 29% [13 Translation-en bzip2 0 B] [6 Sources 1017 kB/5982 kB 17%] [14 Translati                                                                               29% [13 Translation-en bzip2 0 B] [6 Sources 1017 kB/5982 kB 17%]                                                                 31% [6 Sources 1108 kB/5982 kB 19%]                                   31% [14 Translation-en bzip2 0 B] [6 Sources 1120 kB/5982 kB 19%]                                                                 31% [6 Sources 1120 kB/5982 kB 19%]32% [6 Sources 1191 kB/5982 kB 20%]33% [6 Sources 1246 kB/5982 kB 21%]                                   33% [6 Sources 1284 kB/5982 kB 21%]                                371 kB/s 12s34% [6 Sources 1314 kB/5982 kB 22%]                                371 kB/s 12s34% [6 Sources 1346 kB/5982 kB 22%]                                371 kB/s 12s35% [6 Sources 1379 kB/5982 kB 23%]                                371 kB/s 12s35% [6 Sources 1398 kB/5982 kB 23%]                                371 kB/s 12s35% [6 Sources 1413 kB/5982 kB 24%]                                371 kB/s 12s35% [6 Sources 1424 kB/5982 kB 24%]                                371 kB/s 12s35% [6 Sources 1436 kB/5982 kB 24%]                                371 kB/s 12s36% [6 Sources 1463 kB/5982 kB 24%]                                371 kB/s 12s36% [6 Sources 1502 kB/5982 kB 25%]                                371 kB/s 12s37% [6 Sources 1543 kB/5982 kB 26%]                                371 kB/s 11s38% [6 Sources 1598 kB/5982 kB 27%]                                371 kB/s 11s39% [6 Sources 1658 kB/5982 kB 28%]                           62.2 kB/s 1min 9s40% [6 Sources 1779 kB/5982 kB 30%]                           62.2 kB/s 1min 7s44% [6 Sources 2067 kB/5982 kB 35%]                           62.2 kB/s 1min 2s49% [6 Sources 2418 kB/5982 kB 40%]                               62.2 kB/s 57s56% [6 Sources 2878 kB/5982 kB 48%]                               62.2 kB/s 49s61% [6 Sources 3260 kB/5982 kB 54%]                               62.2 kB/s 43s67% [6 Sources 3651 kB/5982 kB 61%]                               62.2 kB/s 37s73% [6 Sources 4050 kB/5982 kB 68%]                               62.2 kB/s 31s80% [6 Sources 4582 kB/5982 kB 77%]                               62.2 kB/s 22s88% [6 Sources 5121 kB/5982 kB 86%]                               62.2 kB/s 13s93% [6 Sources 5522 kB/5982 kB 92%]                                62.2 kB/s 7s100% [6 Sources 5974 kB/5982 kB 100%]                              62.2 kB/s 0s100% [Working]                                                     62.2 kB/s 0s100% [6 Sources bzip2 0 B]                                         62.2 kB/s 0s                                                                               Get:15 http://ftp.de.debian.org wheezy/contrib Sources [47.7 kB]
100% [6 Sources bzip2 0 B] [15 Sources 14.7 kB/47.7 kB 31%]        62.2 kB/s 0s100% [6 Sources bzip2 0 B]                                         62.2 kB/s 0s                                                                               Get:16 http://ftp.de.debian.org wheezy/non-free Sources [93.5 kB]
99% [6 Sources bzip2 0 B] [16 Sources 0 B/93.5 kB 0%]              62.2 kB/s 1s100% [6 Sources bzip2 0 B]                                         62.2 kB/s 0s                                                                               Get:17 http://ftp.de.debian.org wheezy/main i386 Packages [5858 kB]
55% [6 Sources bzip2 0 B] [17 Packages 0 B/5858 kB 0%]              744 kB/s 7s58% [6 Sources bzip2 0 B] [17 Packages 353 kB/5858 kB 6%]           744 kB/s 7s59% [6 Sources bzip2 0 B] [17 Packages 566 kB/5858 kB 10%]          744 kB/s 7s61% [6 Sources bzip2 0 B] [17 Packages 726 kB/5858 kB 12%]          744 kB/s 6s63% [6 Sources bzip2 0 B] [17 Packages 1017 kB/5858 kB 17%]         744 kB/s 6s64% [17 Packages 1147 kB/5858 kB 20%]                               744 kB/s 6s64% [15 Sources bzip2 0 B] [17 Packages 1147 kB/5858 kB 20%]        744 kB/s 6s64% [17 Packages 1147 kB/5858 kB 20%]                               744 kB/s 6s64% [16 Sources bzip2 0 B] [17 Packages 1147 kB/5858 kB 20%]        744 kB/s 6s64% [17 Packages 1147 kB/5858 kB 20%]                               744 kB/s 6s65% [17 Packages 1286 kB/5858 kB 22%]                               744 kB/s 6s65% [17 Packages 1338 kB/5858 kB 23%]                               744 kB/s 6s67% [17 Packages 1500 kB/5858 kB 26%]                               744 kB/s 5s67% [17 Packages 1551 kB/5858 kB 26%]                               744 kB/s 5s68% [17 Packages 1652 kB/5858 kB 28%]                               744 kB/s 5s68% [17 Packages 1737 kB/5858 kB 30%]                               744 kB/s 5s69% [17 Packages 1800 kB/5858 kB 31%]                               744 kB/s 5s69% [17 Packages 1831 kB/5858 kB 31%]                              289 kB/s 13s69% [17 Packages 1856 kB/5858 kB 32%]                              289 kB/s 13s70% [17 Packages 1909 kB/5858 kB 33%]                              289 kB/s 13s70% [17 Packages 1956 kB/5858 kB 33%]                              289 kB/s 13s70% [17 Packages 1966 kB/5858 kB 34%]                              289 kB/s 13s70% [17 Packages 1987 kB/5858 kB 34%]                              289 kB/s 13s70% [17 Packages 2009 kB/5858 kB 34%]                              289 kB/s 13s71% [17 Packages 2019 kB/5858 kB 34%]                              289 kB/s 13s71% [17 Packages 2037 kB/5858 kB 35%]                              289 kB/s 13s71% [17 Packages 2065 kB/5858 kB 35%]                              289 kB/s 13s71% [17 Packages 2082 kB/5858 kB 36%]                              289 kB/s 13s71% [17 Packages 2095 kB/5858 kB 36%]                              289 kB/s 13s71% [17 Packages 2138 kB/5858 kB 36%]                        51.0 kB/s 1min 12s72% [17 Packages 2197 kB/5858 kB 37%]                        51.0 kB/s 1min 11s72% [17 Packages 2266 kB/5858 kB 39%]                        51.0 kB/s 1min 10s73% [17 Packages 2302 kB/5858 kB 39%]                         51.0 kB/s 1min 9s73% [17 Packages 2320 kB/5858 kB 40%]                         51.0 kB/s 1min 9s73% [17 Packages 2357 kB/5858 kB 40%]                         51.0 kB/s 1min 8s74% [17 Packages 2414 kB/5858 kB 41%]                         51.0 kB/s 1min 7s74% [17 Packages 2462 kB/5858 kB 42%]                         51.0 kB/s 1min 6s74% [17 Packages 2503 kB/5858 kB 43%]                         51.0 kB/s 1min 5s75% [17 Packages 2547 kB/5858 kB 43%]                         51.0 kB/s 1min 4s75% [17 Packages 2599 kB/5858 kB 44%]                         51.0 kB/s 1min 3s75% [17 Packages 2621 kB/5858 kB 45%]                         51.0 kB/s 1min 3s75% [17 Packages 2654 kB/5858 kB 45%]                             85.8 kB/s 37s76% [17 Packages 2703 kB/5858 kB 46%]                             85.8 kB/s 36s76% [17 Packages 2733 kB/5858 kB 47%]                             85.8 kB/s 36s76% [17 Packages 2737 kB/5858 kB 47%]                             85.8 kB/s 36s76% [17 Packages 2778 kB/5858 kB 47%]                             85.8 kB/s 35s77% [17 Packages 2805 kB/5858 kB 48%]                             85.8 kB/s 35s77% [17 Packages 2826 kB/5858 kB 48%]                             85.8 kB/s 35s77% [17 Packages 2831 kB/5858 kB 48%]                             85.8 kB/s 35s77% [17 Packages 2844 kB/5858 kB 49%]                             85.8 kB/s 35s77% [17 Packages 2856 kB/5858 kB 49%]                             85.8 kB/s 34s77% [17 Packages 2863 kB/5858 kB 49%]                             85.8 kB/s 34s77% [17 Packages 2871 kB/5858 kB 49%]                             85.8 kB/s 34s77% [17 Packages 2914 kB/5858 kB 50%]                         43.3 kB/s 1min 8s78% [17 Packages 2968 kB/5858 kB 51%]                         43.3 kB/s 1min 6s78% [17 Packages 3052 kB/5858 kB 52%]                         43.3 kB/s 1min 4s79% [17 Packages 3113 kB/5858 kB 53%]                         43.3 kB/s 1min 3s79% [17 Packages 3165 kB/5858 kB 54%]                         43.3 kB/s 1min 2s80% [17 Packages 3216 kB/5858 kB 55%]                         43.3 kB/s 1min 1s80% [17 Packages 3273 kB/5858 kB 56%]                             43.3 kB/s 59s81% [17 Packages 3331 kB/5858 kB 57%]                             43.3 kB/s 58s81% [17 Packages 3365 kB/5858 kB 57%]                             43.3 kB/s 57s81% [17 Packages 3396 kB/5858 kB 58%]                             43.3 kB/s 56s81% [17 Packages 3422 kB/5858 kB 58%]                             43.3 kB/s 56s82% [17 Packages 3448 kB/5858 kB 59%]                             43.3 kB/s 55s82% [17 Packages 3488 kB/5858 kB 60%]                             95.6 kB/s 24s82% [17 Packages 3539 kB/5858 kB 60%]                             95.6 kB/s 24s83% [17 Packages 3610 kB/5858 kB 62%]                             95.6 kB/s 23s83% [17 Packages 3692 kB/5858 kB 63%]                             95.6 kB/s 22s84% [17 Packages 3810 kB/5858 kB 65%]                             95.6 kB/s 21s85% [17 Packages 3934 kB/5858 kB 67%]                             95.6 kB/s 20s86% [17 Packages 4046 kB/5858 kB 69%]                             95.6 kB/s 18s87% [17 Packages 4111 kB/5858 kB 70%]                             95.6 kB/s 18s87% [17 Packages 4225 kB/5858 kB 72%]                             95.6 kB/s 17s88% [17 Packages 4290 kB/5858 kB 73%]                             95.6 kB/s 16s89% [17 Packages 4372 kB/5858 kB 75%]                             95.6 kB/s 15s89% [17 Packages 4453 kB/5858 kB 76%]                             95.6 kB/s 14s90% [17 Packages 4522 kB/5858 kB 77%]                               172 kB/s 7s90% [17 Packages 4593 kB/5858 kB 78%]                               172 kB/s 7s91% [17 Packages 4637 kB/5858 kB 79%]                               172 kB/s 7s91% [17 Packages 4650 kB/5858 kB 79%]                               172 kB/s 7s91% [17 Packages 4670 kB/5858 kB 80%]                               172 kB/s 6s91% [17 Packages 4708 kB/5858 kB 80%]                               172 kB/s 6s92% [17 Packages 4758 kB/5858 kB 81%]                               172 kB/s 6s92% [17 Packages 4810 kB/5858 kB 82%]                               172 kB/s 6s92% [17 Packages 4866 kB/5858 kB 83%]                               172 kB/s 5s93% [17 Packages 4903 kB/5858 kB 84%]                               172 kB/s 5s93% [17 Packages 4941 kB/5858 kB 84%]                               172 kB/s 5s93% [17 Packages 4996 kB/5858 kB 85%]                               172 kB/s 5s94% [17 Packages 5070 kB/5858 kB 87%]                              91.1 kB/s 8s95% [17 Packages 5143 kB/5858 kB 88%]                              91.1 kB/s 7s95% [17 Packages 5260 kB/5858 kB 90%]                              91.1 kB/s 6s97% [17 Packages 5450 kB/5858 kB 93%]                              91.1 kB/s 4s99% [17 Packages 5691 kB/5858 kB 97%]                              91.1 kB/s 1s100% [Working]                                                     91.1 kB/s 0s100% [17 Packages bzip2 0 B]                                       91.1 kB/s 0s                                                                               Get:18 http://ftp.de.debian.org wheezy/contrib i386 Packages [42.3 kB]
100% [17 Packages bzip2 0 B] [18 Packages 1068 B/42.3 kB 3%]       91.1 kB/s 0s100% [17 Packages bzip2 0 B]                                       91.1 kB/s 0s                                                                               Get:19 http://ftp.de.debian.org wheezy/non-free i386 Packages [77.5 kB]
99% [17 Packages bzip2 0 B] [19 Packages 0 B/77.5 kB 0%]           91.1 kB/s 0s100% [17 Packages bzip2 0 B] [19 Packages 76.3 kB/77.5 kB 98%]     91.1 kB/s 0s100% [17 Packages bzip2 0 B]                                       91.1 kB/s 0s                                                                               Get:20 http://ftp.de.debian.org wheezy/contrib Translation-en [34.8 kB]
100% [17 Packages bzip2 0 B] [20 Translation-en 0 B/34.8 kB 0%]    91.1 kB/s 0s100% [17 Packages bzip2 0 B]                                       91.1 kB/s 0s                                                                               Get:21 http://ftp.de.debian.org wheezy/main Translation-en [3846 kB]
77% [17 Packages bzip2 0 B] [21 Translation-en 0 B/3846 kB 0%]    91.1 kB/s 42s                                                                               79% [17 Packages bzip2 0 B] [21 Translation-en 262 kB/3846 kB 7%]                                                                 81% [17 Packages bzip2 0 B] [21 Translation-en 669 kB/3846 kB 17%]                                                                  85% [17 Packages bzip2 0 B] [21 Translation-en 1230 kB/3846 kB 32%]86% [17 Packages bzip2 0 B] [21 Translation-en 1476 kB/3846 kB 38%]                                                                   86% [21 Translation-en 1489 kB/3846 kB 39%]                       91.1 kB/s 25s                                                                               86% [18 Packages bzip2 0 B] [21 Translation-en 1489 kB/3846 kB 39%]                                                                   87% [21 Translation-en 1561 kB/3846 kB 41%]                       91.1 kB/s 25s                                                                               87% [19 Packages bzip2 0 B] [21 Translation-en 1577 kB/3846 kB 41%]                                                                   87% [21 Translation-en 1602 kB/3846 kB 42%]                       91.1 kB/s 24s                                                                               87% [20 Translation-en bzip2 0 B] [21 Translation-en 1602 kB/3846 kB 42%]                                                                         87% [21 Translation-en 1606 kB/3846 kB 42%]                       91.1 kB/s 24s89% [21 Translation-en 1949 kB/3846 kB 51%]                         463 kB/s 4s91% [21 Translation-en 2288 kB/3846 kB 60%]                         463 kB/s 3s92% [21 Translation-en 2565 kB/3846 kB 67%]                         463 kB/s 2s94% [21 Translation-en 2778 kB/3846 kB 72%]                         463 kB/s 2s95% [21 Translation-en 2990 kB/3846 kB 78%]                         463 kB/s 1s96% [21 Translation-en 3202 kB/3846 kB 83%]                         463 kB/s 1s97% [21 Translation-en 3373 kB/3846 kB 88%]                         463 kB/s 1s98% [21 Translation-en 3565 kB/3846 kB 93%]                         463 kB/s 0s99% [21 Translation-en 3751 kB/3846 kB 98%]                         463 kB/s 0s100% [Working]                                                      463 kB/s 0s100% [21 Translation-en bzip2 0 B] [Waiting for headers]            463 kB/s 0s                                                                               Get:22 http://ftp.de.debian.org wheezy/non-free Translation-en [66.1 kB]
                                                                               100% [21 Translation-en bzip2 0 B] [22 Translation-en 0 B/66.1 kB 0%]                                                                     100% [21 Translation-en bzip2 0 B]                                  463 kB/s 0s100% [21 Translation-en bzip2 0 B]                                  463 kB/s 0s100% [21 Translation-en bzip2 0 B]                                  463 kB/s 0s100% [21 Translation-en bzip2 0 B]                                  463 kB/s 0s100% [21 Translation-en bzip2 0 B]                                  306 kB/s 0s100% [Working]                                                      306 kB/s 0s100% [22 Translation-en bzip2 0 B]                                  306 kB/s 0s100% [Working]                                                      306 kB/s 0s                                                                               Fetched 17.1 MB in 1min 13s (232 kB/s)
Reading package lists... 0%Reading package lists... 0%Reading package lists... 1%Reading package lists... 37%Reading package lists... 55%Reading package lists... 55%Reading package lists... 56%Reading package lists... 56%Reading package lists... 56%Reading package lists... 56%Reading package lists... 57%Reading package lists... 57%Reading package lists... 63%Reading package lists... 93%Reading package lists... 93%Reading package lists... 93%Reading package lists... 93%Reading package lists... 97%Reading package lists... 97%Reading package lists... 97%Reading package lists... 97%Reading package lists... 97%Reading package lists... 97%Reading package lists... 97%Reading package lists... 97%Reading package lists... 99%Reading package lists... 99%Reading package lists... 99%Reading package lists... 99%Reading package lists... Done
+ apt-get -y upgrade
Reading package lists... 0%Reading package lists... 100%Reading package lists... Done
Building dependency tree... 0%Building dependency tree... 0%Building dependency tree... 50%Building dependency tree... 50%Building dependency tree... Done
The following packages will be upgraded:
  cpio dpkg isc-dhcp-client isc-dhcp-common libc-bin libc6 libgcrypt11
  libgnutls26 libssl1.0.0 multiarch-support perl-base
11 upgraded, 0 newly installed, 0 to remove and 0 not upgraded.
Need to get 15.2 MB of archives.
After this operation, 905 kB disk space will be freed.
0% [Working]            Get:1 http://security.debian.org/ wheezy/updates/main dpkg i386 1.16.17 [2644 kB]
            0% [1 dpkg 0 B/2644 kB 0%]                          1% [1 dpkg 202 kB/2644 kB 8%]                             3% [1 dpkg 501 kB/2644 kB 19%]6% [1 dpkg 877 kB/2644 kB 33%]                              8% [1 dpkg 1259 kB/2644 kB 48%]                               12% [1 dpkg 1795 kB/2644 kB 68%]16% [1 dpkg 2418 kB/2644 kB 91%]                                17% [Working]             Get:2 http://security.debian.org/ wheezy/updates/main perl-base i386 5.14.2-21+deb7u3 [1486 kB]
             17% [2 perl-base 0 B/1486 kB 0%]                                22% [2 perl-base 724 kB/1486 kB 49%]                                    26% [2 perl-base 1368 kB/1486 kB 92%]                                     27% [Working]             Get:3 http://security.debian.org/ wheezy/updates/main libc-bin i386 2.13-38+deb7u10 [1218 kB]
             27% [3 libc-bin 0 B/1218 kB 0%]                               31% [3 libc-bin 637 kB/1218 kB 52%]                                   35% [Working]             Get:4 http://security.debian.org/ wheezy/updates/main libc6 i386 2.13-38+deb7u10 [3831 kB]
             35% [4 libc6 0 B/3831 kB 0%]                            39% [4 libc6 651 kB/3831 kB 17%]                                    985 kB/s 9s42% [4 libc6 1074 kB/3831 kB 28%]                                   985 kB/s 8s46% [4 libc6 1652 kB/3831 kB 43%]                                   985 kB/s 8s50% [4 libc6 2222 kB/3831 kB 58%]                                   985 kB/s 7s53% [4 libc6 2729 kB/3831 kB 71%]                                   985 kB/s 7s56% [4 libc6 3114 kB/3831 kB 81%]                                   985 kB/s 6s58% [4 libc6 3420 kB/3831 kB 89%]                                   985 kB/s 6s60% [4 libc6 3699 kB/3831 kB 97%]                                   985 kB/s 6s60% [Working]                                                       985 kB/s 6s                                                                               Get:5 http://security.debian.org/ wheezy/updates/main libgcrypt11 i386 1.5.0-5+deb7u4 [302 kB]
60% [5 libgcrypt11 2484 B/302 kB 1%]                                985 kB/s 6s62% [Working]                                                       985 kB/s 5s                                                                               Get:6 http://security.debian.org/ wheezy/updates/main libgnutls26 i386 2.12.20-8+deb7u5 [605 kB]
63% [6 libgnutls26 18.1 kB/605 kB 3%]                               985 kB/s 5s65% [6 libgnutls26 388 kB/605 kB 64%]                               985 kB/s 5s66% [Working]                                                       985 kB/s 5s                                                                               Get:7 http://security.debian.org/ wheezy/updates/main libssl1.0.0 i386 1.0.1e-2+deb7u20 [3046 kB]
66% [7 libssl1.0.0 0 B/3046 kB 0%]                                  985 kB/s 5s69% [7 libssl1.0.0 330 kB/3046 kB 11%]                              985 kB/s 4s70% [7 libssl1.0.0 605 kB/3046 kB 20%]                              775 kB/s 5s72% [7 libssl1.0.0 909 kB/3046 kB 30%]                              775 kB/s 5s74% [7 libssl1.0.0 1207 kB/3046 kB 40%]                             775 kB/s 5s76% [7 libssl1.0.0 1513 kB/3046 kB 50%]                             775 kB/s 4s78% [7 libssl1.0.0 1746 kB/3046 kB 57%]                             775 kB/s 4s80% [7 libssl1.0.0 2090 kB/3046 kB 69%]                             775 kB/s 3s82% [7 libssl1.0.0 2395 kB/3046 kB 79%]                             775 kB/s 3s84% [7 libssl1.0.0 2690 kB/3046 kB 88%]                             775 kB/s 3s86% [7 libssl1.0.0 3009 kB/3046 kB 99%]                             775 kB/s 2s86% [Working]                                                       775 kB/s 2s                                                                               Get:8 http://security.debian.org/ wheezy/updates/main multiarch-support i386 2.13-38+deb7u10 [152 kB]
86% [8 multiarch-support 1036 B/152 kB 1%]                          775 kB/s 2s87% [Working]                                                       775 kB/s 2s                                                                               Get:9 http://security.debian.org/ wheezy/updates/main cpio i386 2.11+dfsg-0.1+deb7u2 [266 kB]
88% [9 cpio 15.1 kB/266 kB 6%]                                      775 kB/s 2s89% [Working]                                                       775 kB/s 2s                                                                               Get:10 http://security.debian.org/ wheezy/updates/main isc-dhcp-client i386 4.2.2.dfsg.1-5+deb70u8 [792 kB]
89% [10 isc-dhcp-client 3932 B/792 kB 0%]                           775 kB/s 2s91% [10 isc-dhcp-client 349 kB/792 kB 44%]                          775 kB/s 1s94% [10 isc-dhcp-client 719 kB/792 kB 91%]                          775 kB/s 1s94% [Working]                                                       775 kB/s 1s                                                                               Get:11 http://security.debian.org/ wheezy/updates/main isc-dhcp-common i386 4.2.2.dfsg.1-5+deb70u8 [852 kB]
94% [11 isc-dhcp-common 0 B/852 kB 0%]                              606 kB/s 1s96% [11 isc-dhcp-common 292 kB/852 kB 34%]                          606 kB/s 0s98% [11 isc-dhcp-common 521 kB/852 kB 61%]                          606 kB/s 0s100% [11 isc-dhcp-common 821 kB/852 kB 96%]                         606 kB/s 0s100% [Working]                                                      606 kB/s 0s                                                                               Fetched 15.2 MB in 19s (770 kB/s)
Preconfiguring packages ...
(Reading database ... (Reading database ... 5%(Reading database ... 10%(Reading database ... 15%(Reading database ... 20%(Reading database ... 25%(Reading database ... 30%(Reading database ... 35%(Reading database ... 40%(Reading database ... 45%(Reading database ... 50%(Reading database ... 55%(Reading database ... 60%(Reading database ... 65%(Reading database ... 70%(Reading database ... 75%(Reading database ... 80%(Reading database ... 85%(Reading database ... 90%(Reading database ... 95%(Reading database ... 100%(Reading database ... 9318 files and directories currently installed.)
Preparing to replace dpkg 1.16.16 (using .../archives/dpkg_1.16.17_i386.deb) ...
Unpacking replacement dpkg ...
Processing triggers for man-db ...
Setting up dpkg (1.16.17) ...
(Reading database ... (Reading database ... 5%(Reading database ... 10%(Reading database ... 15%(Reading database ... 20%(Reading database ... 25%(Reading database ... 30%(Reading database ... 35%(Reading database ... 40%(Reading database ... 45%(Reading database ... 50%(Reading database ... 55%(Reading database ... 60%(Reading database ... 65%(Reading database ... 70%(Reading database ... 75%(Reading database ... 80%(Reading database ... 85%(Reading database ... 90%(Reading database ... 95%(Reading database ... 100%(Reading database ... 9318 files and directories currently installed.)
Preparing to replace perl-base 5.14.2-21+deb7u2 (using .../perl-base_5.14.2-21+deb7u3_i386.deb) ...
Unpacking replacement perl-base ...
Processing triggers for man-db ...
Setting up perl-base (5.14.2-21+deb7u3) ...
(Reading database ... (Reading database ... 5%(Reading database ... 10%(Reading database ... 15%(Reading database ... 20%(Reading database ... 25%(Reading database ... 30%(Reading database ... 35%(Reading database ... 40%(Reading database ... 45%(Reading database ... 50%(Reading database ... 55%(Reading database ... 60%(Reading database ... 65%(Reading database ... 70%(Reading database ... 75%(Reading database ... 80%(Reading database ... 85%(Reading database ... 90%(Reading database ... 95%(Reading database ... 100%(Reading database ... 9318 files and directories currently installed.)
Preparing to replace libc-bin 2.13-38+deb7u8 (using .../libc-bin_2.13-38+deb7u10_i386.deb) ...
Unpacking replacement libc-bin ...
Processing triggers for man-db ...
Setting up libc-bin (2.13-38+deb7u10) ...
(Reading database ... (Reading database ... 5%(Reading database ... 10%(Reading database ... 15%(Reading database ... 20%(Reading database ... 25%(Reading database ... 30%(Reading database ... 35%(Reading database ... 40%(Reading database ... 45%(Reading database ... 50%(Reading database ... 55%(Reading database ... 60%(Reading database ... 65%(Reading database ... 70%(Reading database ... 75%(Reading database ... 80%(Reading database ... 85%(Reading database ... 90%(Reading database ... 95%(Reading database ... 100%(Reading database ... 9318 files and directories currently installed.)
Preparing to replace libc6:i386 2.13-38+deb7u8 (using .../libc6_2.13-38+deb7u10_i386.deb) ...
Unpacking replacement libc6:i386 ...
Setting up libc6:i386 (2.13-38+deb7u10) ...
(Reading database ... (Reading database ... 5%(Reading database ... 10%(Reading database ... 15%(Reading database ... 20%(Reading database ... 25%(Reading database ... 30%(Reading database ... 35%(Reading database ... 40%(Reading database ... 45%(Reading database ... 50%(Reading database ... 55%(Reading database ... 60%(Reading database ... 65%(Reading database ... 70%(Reading database ... 75%(Reading database ... 80%(Reading database ... 85%(Reading database ... 90%(Reading database ... 95%(Reading database ... 100%(Reading database ... 9318 files and directories currently installed.)
Preparing to replace libgcrypt11:i386 1.5.0-5+deb7u3 (using .../libgcrypt11_1.5.0-5+deb7u4_i386.deb) ...
Unpacking replacement libgcrypt11:i386 ...
Preparing to replace libgnutls26:i386 2.12.20-8+deb7u3 (using .../libgnutls26_2.12.20-8+deb7u5_i386.deb) ...
Unpacking replacement libgnutls26:i386 ...
Preparing to replace libssl1.0.0:i386 1.0.1e-2+deb7u17 (using .../libssl1.0.0_1.0.1e-2+deb7u20_i386.deb) ...
Unpacking replacement libssl1.0.0:i386 ...
Preparing to replace multiarch-support 2.13-38+deb7u8 (using .../multiarch-support_2.13-38+deb7u10_i386.deb) ...
Unpacking replacement multiarch-support ...
Setting up multiarch-support (2.13-38+deb7u10) ...
(Reading database ... (Reading database ... 5%(Reading database ... 10%(Reading database ... 15%(Reading database ... 20%(Reading database ... 25%(Reading database ... 30%(Reading database ... 35%(Reading database ... 40%(Reading database ... 45%(Reading database ... 50%(Reading database ... 55%(Reading database ... 60%(Reading database ... 65%(Reading database ... 70%(Reading database ... 75%(Reading database ... 80%(Reading database ... 85%(Reading database ... 90%(Reading database ... 95%(Reading database ... 100%(Reading database ... 9318 files and directories currently installed.)
Preparing to replace cpio 2.11+dfsg-0.1+deb7u1 (using .../cpio_2.11+dfsg-0.1+deb7u2_i386.deb) ...
Unpacking replacement cpio ...
Preparing to replace isc-dhcp-client 4.2.2.dfsg.1-5+deb70u6 (using .../isc-dhcp-client_4.2.2.dfsg.1-5+deb70u8_i386.deb) ...
Unpacking replacement isc-dhcp-client ...
Preparing to replace isc-dhcp-common 4.2.2.dfsg.1-5+deb70u6 (using .../isc-dhcp-common_4.2.2.dfsg.1-5+deb70u8_i386.deb) ...
Unpacking replacement isc-dhcp-common ...
Processing triggers for man-db ...
Setting up libgcrypt11:i386 (1.5.0-5+deb7u4) ...
Setting up libgnutls26:i386 (2.12.20-8+deb7u5) ...
Setting up libssl1.0.0:i386 (1.0.1e-2+deb7u20) ...
Setting up cpio (2.11+dfsg-0.1+deb7u2) ...
Setting up isc-dhcp-common (4.2.2.dfsg.1-5+deb70u8) ...
Setting up isc-dhcp-client (4.2.2.dfsg.1-5+deb70u8) ...
+ apt-get clean
+ apt-get autoclean
Reading package lists... 0%Reading package lists... 0%Reading package lists... 1%Reading package lists... 27%Reading package lists... 48%Reading package lists... 55%Reading package lists... 55%Reading package lists... 56%Reading package lists... 56%Reading package lists... 56%Reading package lists... 56%Reading package lists... 57%Reading package lists... 57%Reading package lists... 91%Reading package lists... 93%Reading package lists... 93%Reading package lists... 93%Reading package lists... 93%Reading package lists... 97%Reading package lists... 97%Reading package lists... 97%Reading package lists... 97%Reading package lists... 97%Reading package lists... 97%Reading package lists... 97%Reading package lists... 97%Reading package lists... 99%Reading package lists... 99%Reading package lists... 99%Reading package lists... 99%Reading package lists... Done
Building dependency tree... 0%Building dependency tree... 0%Building dependency tree... 50%Building dependency tree... 50%Building dependency tree       
Reading state information... 0%Reading state information... 0%Reading state information... Done
+ rm -rf /var/lib/apt/lists/ftp.de.debian.org_debian_dists_wheezy_Release /var/lib/apt/lists/ftp.de.debian.org_debian_dists_wheezy_Release.gpg /var/lib/apt/lists/ftp.de.debian.org_debian_dists_wheezy_contrib_binary-i386_Packages /var/lib/apt/lists/ftp.de.debian.org_debian_dists_wheezy_contrib_i18n_Translation-en /var/lib/apt/lists/ftp.de.debian.org_debian_dists_wheezy_contrib_source_Sources /var/lib/apt/lists/ftp.de.debian.org_debian_dists_wheezy_main_binary-i386_Packages /var/lib/apt/lists/ftp.de.debian.org_debian_dists_wheezy_main_i18n_Translation-en /var/lib/apt/lists/ftp.de.debian.org_debian_dists_wheezy_main_source_Sources /var/lib/apt/lists/ftp.de.debian.org_debian_dists_wheezy_non-free_binary-i386_Packages /var/lib/apt/lists/ftp.de.debian.org_debian_dists_wheezy_non-free_i18n_Translation-en /var/lib/apt/lists/ftp.de.debian.org_debian_dists_wheezy_non-free_source_Sources /var/lib/apt/lists/lock /var/lib/apt/lists/partial /var/lib/apt/lists/security.debian.org_dists_wheezy_updates_Release /var/lib/apt/lists/security.debian.org_dists_wheezy_updates_Release.gpg /var/lib/apt/lists/security.debian.org_dists_wheezy_updates_contrib_binary-i386_Packages /var/lib/apt/lists/security.debian.org_dists_wheezy_updates_contrib_i18n_Translation-en /var/lib/apt/lists/security.debian.org_dists_wheezy_updates_contrib_source_Sources /var/lib/apt/lists/security.debian.org_dists_wheezy_updates_main_binary-i386_Packages /var/lib/apt/lists/security.debian.org_dists_wheezy_updates_main_i18n_Translation-en /var/lib/apt/lists/security.debian.org_dists_wheezy_updates_main_source_Sources /var/lib/apt/lists/security.debian.org_dists_wheezy_updates_non-free_binary-i386_Packages /var/lib/apt/lists/security.debian.org_dists_wheezy_updates_non-free_i18n_Translation-en /var/lib/apt/lists/security.debian.org_dists_wheezy_updates_non-free_source_Sources /var/cache/apt/archives/lock /var/cache/apt/archives/partial /var/cache/apt/srcpkgcache.bin /var/cache/apt/pkgcache.bin
+ rm /tmp/bin/invoke-rc.d
+ rmdir /tmp/bin
+ exit 0
sha256:75a812b2f51ad7b6dbe511601cc1bf4b709d042905f76159c1de4019e6de15b1
tmp_NTLRaYpHJk
Untagged: wheezy-i386-tmp:latest
Untagged: 7.0-i386-tmp:latest
